org\example\beans\NewsDocument.class
org\example\rest\DealDocThreeResource.class
org\example\beans\DealItem.class
org\example\rest\DealDocFourResource.class
org\example\beans\BaseDocument.class
org\example\rest\DealDocThreeResource$4.class
org\example\rest\MyNewsItemResource.class
org\example\beans\EventItem.class
org\example\beans\DealDocTwo.class
org\example\beans\DealDoc.class
org\example\rest\DealDocThreeResource$1.class
org\example\rest\DealDocThreeResource$3.class
org\example\rest\EventItemResource.class
org\example\beans\DealDocThree.class
org\example\beans\DealDocFour.class
org\example\beans\MyNewsItem.class
org\example\rest\DealDocThreeResource$2.class
